{
  "request": {
    "method": "GET",
    "urlPath": "/api/people/",
    "queryParameters": {
      "page": {
        "equalTo": "1"
      }
    }
  },
  "response": {
    "status": 200,
    "headers": {
      "Content-Type": "application/json"
    },
    "jsonBody": {
      "count": 82,
      "next": "https://swapi.dev/api/people/?page=2",
      "previous": null,
      "results": [
        {
          "name": "Luke Skywalker",
          "height": "172",
          "mass": "77",
          "birth_year": "19BBY",
          "films": [
            "https://swapi.dev/api/films/1/",
            "https://swapi.dev/api/films/2/",
            "https://swapi.dev/api/films/3/",
            "https://swapi.dev/api/films/6/"
          ],
          "url": "https://swapi.dev/api/people/1/"
        },
        {
          "name": "C-3PO",
          "height": "167",
          "mass": "75",
          "birth_year": "112BBY",
          "films": [
            "https://swapi.dev/api/films/1/",
            "https://swapi.dev/api/films/2/",
            "https://swapi.dev/api/films/3/",
            "https://swapi.dev/api/films/4/",
            "https://swapi.dev/api/films/5/",
            "https://swapi.dev/api/films/6/"
          ],
          "url": "https://swapi.dev/api/people/2/"
        }
      ]
    }
  }
}