{
  "mappings": [
    {
      "name": "SWAPI - Get People Page 1",
      "metadata": {
        "description": "Returns the second page of characters including Luke Skywalker and C-3PO",
        "test_group": "pagination_flow"
      },
      "request": {
        "method": "GET",
        "urlPath": "/api/people",
        "queryParameters": {
          "page": {
            "equalTo": "1"
          }
        }
      },
      "response": {
        "status": 200,
        "headers": {
          "Content-Type": "application/json"
        },
        "jsonBody": {
          "count": 82,
          "next": "https://swapi.dev/api/people?page=2",
          "previous": null,
          "results": [
            {
              "name": "Luke Skywalker",
              "height": "172",
              "mass": "77",
              "hair_color": "blond",
              "skin_color": "fair",
              "eye_color": "blue",
              "birth_year": "19BBY",
              "gender": "male",
              "homeworld": "https://swapi.dev/api/planets/1/",
              "films": [
                "https://swapi.dev/api/films/1/",
                "https://swapi.dev/api/films/2/",
                "https://swapi.dev/api/films/3/",
                "https://swapi.dev/api/films/6/"
              ],
              "species": [],
              "vehicles": [
                "https://swapi.dev/api/vehicles/14/",
                "https://swapi.dev/api/vehicles/30/"
              ],
              "starships": [
                "https://swapi.dev/api/starships/12/",
                "https://swapi.dev/api/starships/22/"
              ],
              "created": "2014-12-09T13:50:51.644000Z",
              "edited": "2014-12-20T21:17:56.891000Z",
              "url": "https://swapi.dev/api/people/1/"
            },
            {
              "name": "C-3PO",
              "height": "167",
              "mass": "75",
              "hair_color": "n/a",
              "skin_color": "gold",
              "eye_color": "yellow",
              "birth_year": "112BBY",
              "gender": "n/a",
              "homeworld": "https://swapi.dev/api/planets/1/",
              "films": [
                "https://swapi.dev/api/films/1/",
                "https://swapi.dev/api/films/2/",
                "https://swapi.dev/api/films/3/",
                "https://swapi.dev/api/films/4/",
                "https://swapi.dev/api/films/5/",
                "https://swapi.dev/api/films/6/"
              ],
              "species": [
                "https://swapi.dev/api/species/2/"
              ],
              "vehicles": [],
              "starships": [],
              "created": "2014-12-10T15:10:51.357000Z",
              "edited": "2014-12-20T21:17:50.309000Z",
              "url": "https://swapi.dev/api/people/2/"
            }
          ]
        }
      }
    },
    {
      "name": "SWAPI - Get People Page 2",
      "metadata": {
        "description": "Returns the second page of characters including R2-D2 and Darth Vader",
        "test_group": "pagination_flow"
      },
      "request": {
        "method": "GET",
        "urlPath": "/api/people",
        "queryParameters": {
          "page": {
            "equalTo": "2"
          }
        }
      },
      "response": {
        "status": 200,
        "headers": {
          "Content-Type": "application/json"
        },
        "jsonBody": {
          "count": 82,
          "next": "https://swapi.dev/api/people/?page=3",
          "previous": "https://swapi.dev/api/people/?page=1",
          "results": [
            {
              "name": "R2-D2",
              "height": "96",
              "mass": "32",
              "hair_color": "n/a",
              "skin_color": "white, blue",
              "eye_color": "red",
              "birth_year": "33BBY",
              "gender": "n/a",
              "homeworld": "https://swapi.dev/api/planets/8/",
              "films": [
                "https://swapi.dev/api/films/1/",
                "https://swapi.dev/api/films/2/",
                "https://swapi.dev/api/films/3/",
                "https://swapi.dev/api/films/4/",
                "https://swapi.dev/api/films/5/",
                "https://swapi.dev/api/films/6/"
              ],
              "species": [
                "https://swapi.dev/api/species/2/"
              ],
              "vehicles": [],
              "starships": [],
              "created": "2014-12-10T15:11:50.376000Z",
              "edited": "2014-12-20T21:17:50.311000Z",
              "url": "https://swapi.dev/api/people/3/"
            },
            {
              "name": "Darth Vader",
              "height": "202",
              "mass": "136",
              "hair_color": "none",
              "skin_color": "white",
              "eye_color": "yellow",
              "birth_year": "41.9BBY",
              "gender": "male",
              "homeworld": "https://swapi.dev/api/planets/1/",
              "films": [
                "https://swapi.dev/api/films/1/",
                "https://swapi.dev/api/films/2/",
                "https://swapi.dev/api/films/3/",
                "https://swapi.dev/api/films/6/"
              ],
              "species": [],
              "vehicles": [],
              "starships": [
                "https://swapi.dev/api/starships/13/"
              ],
              "created": "2014-12-10T15:18:20.704000Z",
              "edited": "2014-12-20T21:17:50.313000Z",
              "url": "https://swapi.dev/api/people/4/"
            }
          ]
        }
      }
    },
    {
      "name": "SWAPI - Get People Page 3",
      "metadata": {
        "description": "Returns the third page of characters including Leia and Owen Lars",
        "test_group": "pagination_flow"
      },
      "request": {
        "method": "GET",
        "urlPath": "/api/people",
        "queryParameters": {
          "page": {
            "equalTo": "3"
          }
        }
      },
      "response": {
        "status": 200,
        "headers": {
          "Content-Type": "application/json"
        },
        "jsonBody": {
          "count": 82,
          "next": "https://swapi.dev/api/people/?page=4",
          "previous": "https://swapi.dev/api/people/?page=2",
          "results": [
            {
              "name": "Leia Organa",
              "height": "150",
              "mass": "49",
              "hair_color": "brown",
              "skin_color": "light",
              "eye_color": "brown",
              "birth_year": "19BBY",
              "gender": "female",
              "homeworld": "https://swapi.dev/api/planets/2/",
              "films": [
                "https://swapi.dev/api/films/1/",
                "https://swapi.dev/api/films/2/",
                "https://swapi.dev/api/films/3/",
                "https://swapi.dev/api/films/6/"
              ],
              "species": [],
              "vehicles": [
                "https://swapi.dev/api/vehicles/30/"
              ],
              "starships": [],
              "created": "2014-12-10T15:20:09.791000Z",
              "edited": "2014-12-20T21:17:50.315000Z",
              "url": "https://swapi.dev/api/people/5/"
            },
            {
              "name": "Owen Lars",
              "height": "178",
              "mass": "120",
              "hair_color": "brown, grey",
              "skin_color": "light",
              "eye_color": "blue",
              "birth_year": "52BBY",
              "gender": "male",
              "homeworld": "https://swapi.dev/api/planets/1/",
              "films": [
                "https://swapi.dev/api/films/1/",
                "https://swapi.dev/api/films/5/",
                "https://swapi.dev/api/films/6/"
              ],
              "species": [],
              "vehicles": [],
              "starships": [],
              "created": "2014-12-10T15:52:14.024000Z",
              "edited": "2014-12-20T21:17:50.317000Z",
              "url": "https://swapi.dev/api/people/6/"
            }
          ]
        }
      }
    }
  ]
}